5 3
2 7 1
3 1 4
1 5 9
2 6 5
9 7 3
3 4
3 1 2 40000
3 4 2 1
33 42 17 23
1 1
1
2 2
1 2
2 1
24 4
2 1 4 3
3 4 2 1
2 3 1 4
3 2 4 1
4 1 3 2
2 3 4 1
1 2 3 4
1 2 4 3
4 3 2 1
3 2 1 4
3 1 4 2
2 4 3 1
1 4 3 2
4 1 2 3
1 4 2 3
4 2 3 1
4 3 1 2
3 1 2 4
2 4 1 3
3 4 1 2
1 3 4 2
2 1 3 4
4 2 1 3
1 3 2 4
50 20
163 166 173 175 185 192 194 200 208 211 221 230 239 247 255 261 271 277 280 283
110 115 117 121 130 133 138 144 151 159 165 175 181 191 198 205 215 222 224 228
189 191 197 206 208 216 218 225 227 229 233 242 246 248 256 259 269 276 284 293
187 197 207 215 218 222 229 238 240 244 250 254 256 265 269 273 275 284 286 289
145 153 162 166 176 179 185 187 189 199 209 212 218 227 230 236 246 256 259 264
149 152 158 168 173 176 180 187 193 202 212 218 222 228 236 243 251 261 264 271
190 199 207 212 215 222 230 232 237 246 250 257 262 265 271 276 281 291 296 299
111 116 119 127 136 141 149 152 162 170 173 176 182 192 202 207 212 214 219 225
125 130 132 140 149 151 153 158 164 167 177 185 191 195 205 213 219 227 237 246
176 181 187 194 204 209 217 226 234 236 245 251 261 268 272 282 284 292 302 311
118 121 129 133 136 140 142 144 149 156 161 166 174 177 187 196 202 208 214 224
162 167 176 186 190 195 204 212 218 228 235 243 247 254 262 270 276 286 291 294
163 173 181 187 193 195 200 210 212 222 225 231 239 243 253 259 265 270 272 279
165 172 181 186 188 195 202 209 214 221 225 230 233 235 245 248 254 262 264 272
194 203 208 210 217 224 228 238 242 244 249 256 260 263 270 276 278 282 289 292
131 138 148 155 159 162 169 171 177 180 183 193 200 204 207 214 223 229 233 241
186 188 191 198 203 205 207 210 219 227 237 242 245 249 252 260 268 275 285 287
127 132 136 143 148 156 164 173 180 182 184 187 196 202 210 219 227 234 237 240
186 195 202 208 213 223 230 238 241 244 248 253 263 268 275 278 282 290 294 300
188 197 202 209 213 217 224 226 236 242 245 250 256 259 265 270 276 281 285 291
155 158 167 175 182 190 195 205 212 220 230 236 240 243 253 255 264 274 282 289
172 174 184 190 199 203 206 210 214 216 219 226 235 238 246 254 260 266 269 274
116 120 123 125 134 140 144 150 152 159 162 167 173 175 183 193 199 205 213 220
143 147 155 163 172 180 185 190 193 201 204 214 218 221 231 239 249 251 261 266
133 135 137 147 151 156 159 162 167 176 181 183 193 195 197 201 209 211 220 223
191 196 204 209 214 219 224 229 238 246 249 258 261 267 276 279 284 290 297 305
166 172 181 185 191 198 205 212 215 220 226 230 240 248 258 264 271 281 285 294
123 133 141 143 152 156 161 164 170 173 178 187 192 195 198 206 215 225 232 239
199 204 213 216 223 232 239 241 245 254 264 274 277 279 287 289 294 302 310 319
182 189 196 201 211 217 220 226 228 236 241 248 251 259 266 274 284 289 296 298
163 173 179 181 186 189 195 203 209 218 223 226 230 240 246 249 251 254 259 265
167 173 182 188 195 202 209 215 223 225 234 236 242 249 252 259 267 272 282 289
143 145 148 155 163 168 171 179 183 193 195 203 212 217 222 232 236 244 250 252
152 160 169 174 176 178 185 187 196 203 207 209 218 220 224 234 237 241 246 254
134 138 147 152 161 170 174 178 186 188 192 201 208 214 222 225 235 244 249 256
193 203 212 221 225 229 234 244 253 263 272 277 283 289 296 303 308 317 324 332
187 190 197 201 206 214 220 223 228 230 237 239 244 251 253 263 266 275 277 285
124 131 140 143 145 155 163 173 175 182 188 191 201 206 213 217 222 232 237 247
164 170 176 184 187 195 198 207 214 216 223 232 242 244 251 255 259 263 265 274
199 202 210 216 221 223 232 241 251 254 259 265 270 274 277 283 293 295 299 307
147 152 158 163 167 175 180 185 194 201 207 213 220 223 225 230 240 250 260 264
190 198 207 212 214 222 229 236 245 247 256 266 272 281 283 286 293 299 309 314
184 193 201 205 210 216 218 220 223 226 234 236 239 248 254 264 272 281 284 286
176 180 184 191 200 210 217 225 227 229 237 245 253 258 268 275 281 284 290 293
164 170 176 182 185 187 192 202 206 211 213 220 225 229 237 239 247 256 265 275
192 198 203 210 212 218 226 233 243 249 255 259 262 272 276 280 286 292 300 310
118 121 131 137 140 143 146 153 163 171 181 185 192 194 199 202 204 206 210 215
103 111 121 131 134 136 138 144 150 155 164 172 181 189 195 203 209 212 220 226
193 202 204 207 217 223 232 235 239 245 252 257 264 272 280 288 297 307 311 313
194 199 205 214 220 225 229 239 245 247 255 264 272 274 278 284 288 291 297 304
50 20
1219 1217 1214 1204 1196 1188 1183 1175 1169 1167 1157 1151 1146 1136 1132 1125 1123 1117 1107 1105
1266 1262 1252 1248 1241 1232 1224 1218 1216 1207 1204 1197 1187 1177 1171 1163 1161 1157 1148 1139
1269 1259 1249 1247 1241 1233 1226 1222 1218 1208 1206 1198 1193 1188 1182 1177 1170 1168 1160 1156
1207 1205 1200 1197 1188 1182 1176 1173 1165 1155 1147 1143 1134 1132 1123 1116 1109 1107 1102 1100
1238 1233 1226 1219 1213 1208 1203 1200 1198 1196 1193 1185 1178 1174 1166 1158 1155 1150 1146 1136
1251 1244 1237 1232 1230 1223 1215 1212 1204 1199 1189 1181 1179 1174 1165 1162 1152 1148 1146 1143
1239 1233 1227 1221 1212 1208 1203 1198 1191 1183 1176 1166 1158 1149 1147 1139 1136 1131 1126 1120
1270 1261 1255 1247 1238 1231 1222 1218 1212 1206 1201 1192 1185 1176 1173 1168 1166 1156 1149 1147
1289 1287 1279 1271 1265 1257 1251 1243 1240 1231 1225 1217 1214 1210 1203 1197 1194 1187 1183 1175
1285 1277 1274 1264 1258 1256 1250 1247 1244 1237 1234 1232 1228 1225 1218 1210 1208 1199 1194 1190
1232 1223 1219 1217 1211 1201 1198 1196 1192 1185 1176 1173 1166 1159 1156 1147 1140 1131 1125 1118
1205 1199 1194 1186 1177 1172 1170 1165 1157 1153 1146 1138 1131 1126 1124 1115 1112 1108 1101 1098
1207 1205 1200 1195 1185 1182 1179 1175 1168 1160 1158 1153 1145 1138 1134 1126 1124 1119 1112 1102
1215 1207 1202 1192 1188 1178 1168 1160 1155 1147 1137 1127 1122 1120 1114 1110 1104 1102 1095 1085
1238 1236 1233 1231 1222 1215 1207 1200 1196 1191 1189 1185 1181 1177 1171 1168 1158 1154 1144 1134
1219 1210 1208 1204 1198 1189 1182 1172 1166 1157 1155 1149 1143 1135 1125 1119 1114 1104 1102 1096
1279 1273 1271 1265 1260 1251 1247 1240 1232 1228 1221 1216 1212 1203 1195 1192 1186 1181 1176 1169
1267 1264 1260 1251 1246 1236 1233 1230 1223 1218 1210 1203 1201 1197 1195 1192 1182 1173 1168 1165
1262 1253 1245 1241 1233 1229 1224 1216 1206 1199 1196 1190 1181 1176 1167 1163 1161 1152 1149 1142
1222 1213 1203 1194 1190 1181 1176 1169 1160 1158 1149 1142 1132 1127 1117 1112 1106 1104 1100 1091
1238 1229 1222 1216 1213 1205 1200 1193 1185 1178 1173 1163 1155 1149 1146 1143 1141 1137 1134 1130
1291 1284 1281 1274 1267 1257 1252 1243 1236 1234 1225 1215 1209 1202 1197 1195 1186 1176 1169 1159
1269 1262 1252 1242 1232 1226 1216 1212 1202 1196 1192 1188 1181 1177 1169 1166 1157 1153 1144 1134
1241 1235 1228 1225 1219 1217 1211 1205 1196 1189 1187 1177 1170 1161 1152 1148 1146 1142 1139 1131
1252 1249 1242 1233 1231 1224 1216 1210 1201 1198 1192 1184 1174 1168 1162 1158 1156 1146 1143 1133
1239 1229 1227 1224 1217 1213 1205 1200 1198 1193 1186 1182 1173 1163 1160 1153 1151 1142 1139 1132
1213 1209 1200 1195 1193 1190 1182 1180 1175 1173 1168 1162 1152 1145 1142 1136 1129 1119 1114 1108
1223 1217 1211 1208 1201 1195 1187 1179 1175 1166 1159 1151 1146 1136 1131 1126 1121 1114 1111 1106
1202 1195 1185 1176 1174 1166 1163 1160 1155 1148 1138 1133 1123 1120 1111 1106 1101 1096 1089 1079
1252 1246 1241 1238 1236 1230 1222 1217 1214 1211 1202 1199 1190 1184 1176 1172 1168 1163 1161 1157
1242 1235 1226 1223 1213 1205 1198 1188 1182 1178 1170 1168 1164 1159 1150 1142 1135 1132 1127 1117
1229 1219 1215 1211 1204 1201 1193 1190 1186 1180 1171 1167 1160 1153 1149 1145 1137 1135 1133 1128
1208 1200 1190 1186 1181 1171 1166 1160 1156 1147 1138 1133 1123 1115 1107 1104 1095 1093 1087 1078
1276 1269 1262 1260 1258 1252 1244 1242 1234 1230 1223 1220 1217 1210 1208 1200 1192 1187 1183 1177
1265 1259 1249 1246 1243 1240 1231 1226 1219 1213 1205 1202 1199 1193 1184 1174 1170 1165 1155 1146
1214 1211 1203 1196 1187 1178 1173 1170 1167 1165 1162 1159 1156 1148 1144 1134 1132 1130 1128 1119
1292 1288 1280 1278 1272 1263 1259 1250 1240 1235 1232 1224 1218 1211 1208 1199 1195 1185 1178 1169
1268 1263 1254 1251 1242 1237 1229 1222 1218 1211 1206 1201 1197 1195 1189 1187 1185 1175 1173 1169
1261 1255 1252 1248 1239 1237 1227 1223 1221 1212 1203 1193 1186 1181 1176 1166 1163 1155 1152 1146
1285 1277 1269 1267 1257 1248 1241 1234 1232 1226 1223 1218 1215 1210 1204 1194 1189 1182 1177 1169
1280 1271 1263 1254 1251 1241 1232 1227 1224 1215 1210 1208 1202 1194 1189 1183 1179 1172 1165 1163
1220 1211 1205 1195 1185 1177 1171 1162 1155 1153 1150 1145 1141 1134 1126 1122 1120 1116 1107 1104
1285 1278 1275 1268 1262 1259 1257 1252 1249 1246 1237 1232 1229 1222 1219 1215 1212 1204 1199 1190
1268 1258 1252 1247 1242 1234 1232 1225 1220 1217 1212 1206 1201 1191 1181 1178 1171 1162 1159 1149
1287 1282 1275 1270 1266 1260 1252 1244 1239 1231 1221 1211 1201 1195 1190 1188 1179 1171 1167 1158
1248 1239 1235 1229 1222 1218 1208 1206 1198 1189 1185 1180 1176 1166 1164 1162 1152 1147 1143 1133
1267 1258 1250 1241 1236 1230 1227 1217 1210 1208 1203 1200 1193 1191 1187 1181 1171 1169 1163 1153
1223 1219 1215 1207 1199 1190 1180 1177 1167 1164 1158 1156 1149 1145 1135 1130 1126 1116 1112 1106
1236 1233 1227 1221 1219 1214 1207 1200 1195 1193 1185 1181 1171 1169 1163 1160 1155 1151 1143 1138
1238 1228 1221 1217 1207 1203 1198 1189 1179 1171 1167 1162 1156 1150 1143 1137 1132 1122 1112 1105
50 20
17 20 16 18 19 15 11 13 14 10 12 6 2 1 4 3 5 9 8 7
17 20 18 16 15 19 11 13 14 10 6 2 1 4 3 5 9 8 7 12
17 20 16 15 11 18 19 10 6 13 2 12 9 1 4 3 5 8 7 14
17 16 15 20 18 11 13 10 12 6 14 9 19 2 1 4 3 5 8 7
17 16 15 20 18 11 19 10 6 13 14 12 2 1 4 3 5 9 8 7
17 20 16 18 15 11 13 10 14 19 12 6 2 1 4 3 5 9 8 7
17 16 15 20 18 19 11 10 13 12 6 2 1 4 3 5 9 8 7 14
17 16 20 15 11 18 19 13 10 14 6 2 1 4 3 5 9 8 7 12
17 16 20 15 18 11 19 13 10 14 6 2 1 4 3 5 9 8 7 12
17 16 15 20 18 19 11 13 10 6 2 1 4 3 5 9 8 7 12 14
17 20 16 18 19 15 11 10 6 13 2 1 4 3 5 9 8 7 12 14
17 20 18 16 19 15 11 10 13 6 12 2 1 4 3 5 9 8 7 14
17 16 20 15 11 18 19 13 12 14 10 6 2 1 4 3 5 9 8 7
17 16 20 15 11 10 18 13 6 9 19 14 2 1 4 3 5 8 7 12
17 16 20 15 11 13 12 18 19 10 6 2 1 4 3 5 9 8 7 14
17 16 15 11 20 18 19 13 10 6 14 2 1 4 3 5 9 8 7 12
17 16 20 18 19 15 11 10 13 12 6 2 1 4 3 5 9 8 7 14
17 20 16 15 18 19 11 10 13 14 6 2 1 4 3 5 9 8 7 12
17 20 18 16 15 11 19 13 10 6 9 2 12 1 4 3 5 8 7 14
17 16 20 15 18 19 11 13 10 6 2 1 9 4 3 5 8 7 12 14
17 16 20 18 15 11 13 12 19 14 10 6 2 1 4 3 5 9 8 7
17 20 18 16 15 11 10 19 13 14 6 2 1 4 3 5 9 8 7 12
17 16 15 20 18 19 11 10 13 12 6 2 1 4 3 5 9 8 7 14
17 16 15 20 11 10 18 13 19 6 12 2 1 4 3 5 9 8 7 14
17 20 18 16 19 15 11 13 10 6 12 14 2 1 9 4 3 5 8 7
17 20 16 18 15 11 13 19 12 14 10 6 2 1 4 3 5 9 8 7
17 16 20 18 19 15 11 10 13 6 2 1 4 3 5 9 8 7 12 14
17 16 15 20 18 19 11 10 6 2 1 4 3 5 9 8 7 13 12 14
17 20 16 18 15 11 19 13 10 14 6 2 1 4 3 5 9 8 7 12
17 16 20 18 19 15 11 10 13 6 2 1 4 3 5 9 8 7 12 14
17 20 18 16 15 19 11 10 6 2 1 4 3 5 9 8 7 13 12 14
17 20 18 16 19 15 11 13 10 6 14 2 1 4 3 5 9 8 7 12
17 16 20 18 15 19 11 10 13 12 14 6 2 1 4 3 5 9 8 7
17 20 16 18 15 11 19 10 13 12 14 6 2 1 4 3 5 9 8 7
17 20 16 15 11 10 18 6 19 13 2 12 1 4 3 5 9 8 7 14
17 20 16 15 11 10 18 19 13 14 6 2 1 4 3 5 9 8 7 12
17 16 15 11 10 20 18 13 19 6 12 14 2 1 4 3 5 9 8 7
17 16 20 15 11 18 19 10 13 6 2 1 4 3 5 9 8 7 12 14
17 20 16 18 15 19 11 13 14 12 10 6 2 1 4 3 5 9 8 7
17 16 15 11 10 20 18 13 6 14 12 19 2 1 4 3 5 9 8 7
17 20 16 15 18 19 11 13 10 12 14 6 2 1 4 3 5 9 8 7
17 16 20 15 18 11 19 10 13 12 14 6 2 1 4 3 5 9 8 7
17 20 16 18 15 11 10 19 6 2 1 4 3 5 9 8 7 13 12 14
17 16 20 18 15 19 11 10 6 13 2 1 4 3 5 9 8 7 12 14
17 20 18 16 19 15 11 10 13 12 14 6 2 1 4 3 5 9 8 7
17 20 16 18 19 15 11 10 6 13 12 14 2 1 4 3 5 9 8 7
17 20 16 18 15 11 19 13 10 6 9 8 2 1 4 3 5 7 12 14
17 16 20 15 18 19 11 10 6 2 1 4 3 5 9 8 7 13 12 14
17 20 16 18 15 19 11 10 6 9 13 12 14 2 1 4 3 5 8 7
17 20 18 16 15 11 19 13 10 6 9 2 1 4 3 5 8 7 12 14
50 7
7 6 3 5 4 2 1
1 3 2 4 7 5 6
4 7 1 2 5 3 6
5 1 6 7 2 4 3
1 3 2 5 6 4 7
6 7 1 5 4 2 3
1 3 7 2 4 5 6
1 2 3 5 4 6 7
5 1 7 2 6 3 4
7 1 6 2 3 5 4
3 4 1 2 5 7 6
1 2 7 6 5 3 4
3 7 2 4 1 5 6
6 7 3 5 2 4 1
5 1 3 6 2 4 7
7 6 1 5 2 4 3
1 5 4 7 6 2 3
4 2 1 7 3 5 6
1 2 5 7 3 6 4
4 3 1 7 5 2 6
2 1 3 4 6 5 7
2 3 1 7 4 5 6
6 2 1 7 3 5 4
6 5 7 1 3 4 2
7 2 5 6 4 1 3
1 2 3 7 5 4 6
6 4 7 5 3 1 2
5 7 2 1 6 3 4
1 7 2 3 5 4 6
1 7 4 2 3 5 6
1 2 4 3 7 6 5
1 7 6 5 2 3 4
7 1 4 6 2 3 5
6 7 4 5 2 1 3
1 2 6 7 3 4 5
1 3 2 4 5 7 6
4 3 7 2 6 5 1
2 1 7 3 6 4 5
1 7 4 3 6 5 2
1 7 3 2 6 5 4
1 2 4 6 7 3 5
1 3 4 2 6 7 5
7 2 3 1 4 5 6
7 1 5 6 2 3 4
1 7 2 3 4 5 6
3 1 5 2 7 6 4
7 6 5 2 1 4 3
7 6 1 3 2 5 4
7 6 1 5 4 3 2
7 6 5 4 1 2 3
10 10
500 501 499 502 503 504 505 498 506 497
585 584 583 582 581 586 580 587 588 589
872 873 871 870 874 875 869 876 868 867
114 115 113 116 117 112 111 110 109 118
143 142 144 145 141 146 147 148 149 150
965 964 966 967 968 969 970 971 963 962
933 934 935 936 932 931 937 930 929 928
425 424 423 422 421 420 419 426 418 427
945 944 946 943 942 947 941 948 940 949
265 264 266 267 268 263 262 269 270 261
10 10
828 827 829 826 824 825 830 832 833 834
426 428 429 427 425 423 430 431 432 424
419 420 418 421 417 422 423 416 424 425
947 945 944 946 943 948 950 949 942 951
93 91 94 95 92 96 97 90 98 89
27 29 31 32 33 30 28 26 34 25
214 212 213 215 216 211 217 210 218 209
223 221 220 219 222 224 218 225 227 228
616 618 620 621 622 619 617 623 615 613
48 47 46 44 49 50 52 54 51 45
10 10
468 472 471 474 473 469 464 466 467 470
258 255 252 247 242 237 236 241 240 235
930 926 924 927 932 928 925 929 931 923
992 996 999 998 993 1000 1001 997 994 991
854 859 856 860 861 864 858 862 867 863
821 820 823 824 819 822 818 816 825 817
378 381 380 377 375 376 373 370 374 379
137 139 135 134 129 133 128 127 123 121
521 520 525 527 529 524 523 526 530 522
531 528 533 530 527 529 532 526 534 537
10 10
304 312 310 303 305 311 302 306 297 293
446 443 442 436 444 449 448 447 457 462
151 150 153 160 166 173 182 184 191 201
657 666 664 673 668 674 684 681 676 682
509 506 513 519 516 505 498 492 485 490
294 289 296 297 299 290 280 291 281 273
1060 1055 1050 1042 1033 1031 1021 1029 1034 1032
573 582 591 588 594 602 599 595 603 613
447 452 445 435 428 426 433 431 439 436
164 165 158 159 157 151 160 156 146 154
50 20
2441 2440 2442 2439 2438 2443 2444 2445 2446 2437 2436 2447 2435 2434 2448 2449 2450 2433 2451 2432
3315 3316 3314 3317 3313 3312 3318 3311 3319 3320 3310 3321 3322 3323 3324 3309 3308 3307 3306 3305
4723 4722 4724 4725 4721 4726 4727 4728 4720 4719 4718 4729 4730 4731 4732 4733 4734 4735 4717 4716
2156 2157 2158 2159 2155 2160 2154 2161 2162 2153 2152 2163 2164 2151 2165 2150 2166 2167 2149 2148
2067 2068 2066 2069 2065 2064 2070 2071 2072 2063 2062 2061 2060 2059 2058 2073 2057 2074 2075 2076
2175 2174 2173 2176 2172 2171 2170 2177 2169 2178 2168 2179 2167 2166 2180 2165 2164 2181 2163 2182
3070 3069 3071 3068 3067 3072 3066 3073 3065 3064 3074 3063 3075 3076 3077 3078 3062 3079 3080 3061
4043 4042 4041 4040 4039 4044 4038 4045 4046 4037 4036 4047 4035 4048 4034 4049 4033 4050 4032 4051
3485 3486 3487 3484 3488 3489 3483 3482 3481 3480 3479 3478 3477 3476 3475 3490 3474 3491 3473 3492
1491 1492 1493 1494 1490 1489 1488 1487 1486 1495 1496 1485 1484 1497 1483 1498 1499 1482 1481 1500
742 741 743 740 739 738 744 737 736 735 745 746 747 748 734 749 733 732 750 731
4206 4207 4205 4208 4204 4203 4202 4201 4209 4210 4200 4199 4211 4212 4213 4214 4215 4216 4198 4217
3624 3623 3625 3622 3626 3621 3620 3619 3627 3618 3617 3628 3629 3616 3630 3615 3614 3631 3613 3612
2062 2061 2063 2064 2065 2066 2060 2067 2059 2058 2057 2068 2056 2069 2070 2055 2071 2054 2072 2073
3746 3747 3745 3748 3749 3750 3751 3744 3752 3753 3754 3755 3743 3756 3742 3741 3740 3757 3739 3758
1305 1304 1303 1302 1306 1307 1301 1300 1308 1309 1310 1299 1311 1312 1313 1298 1314 1297 1296 1295
2616 2615 2617 2618 2614 2613 2619 2620 2612 2611 2621 2622 2623 2610 2609 2608 2607 2624 2606 2625
3815 3816 3814 3813 3812 3811 3810 3809 3808 3817 3807 3818 3819 3820 3821 3822 3806 3823 3805 3804
4457 4458 4456 4455 4454 4459 4453 4452 4451 4460 4450 4461 4462 4449 4463 4448 4447 4446 4464 4465
308 307 306 309 310 305 304 303 311 302 312 301 300 299 313 298 297 296 314 295
2118 2119 2120 2121 2122 2117 2116 2115 2123 2114 2113 2124 2112 2111 2125 2110 2126 2109 2127 2128
4334 4333 4332 4335 4336 4331 4337 4338 4339 4340 4341 4330 4342 4329 4343 4328 4327 4344 4345 4346
1816 1817 1818 1819 1820 1821 1815 1814 1813 1822 1823 1812 1824 1811 1825 1826 1810 1809 1808 1827
246 245 247 248 244 243 242 241 249 250 240 239 238 251 237 236 252 235 234 253
4999 4998 4997 5000 4996 4995 5001 4994 5002 4993 4992 5003 4991 4990 4989 5004 4988 5005 4987 4986
3886 3887 3885 3884 3888 3889 3883 3882 3890 3881 3891 3880 3892 3879 3893 3878 3894 3895 3896 3877
319 318 320 317 321 322 316 315 314 323 313 324 325 312 326 311 327 328 329 330
225 224 223 226 222 221 227 220 219 218 228 217 216 215 229 230 214 231 213 232
4659 4658 4657 4660 4661 4662 4663 4656 4655 4654 4664 4653 4652 4651 4650 4665 4666 4649 4667 4648
3819 3820 3818 3817 3816 3815 3814 3821 3822 3813 3812 3811 3810 3809 3808 3823 3824 3807 3825 3806
808 809 807 806 805 804 803 810 802 811 801 800 799 798 812 797 813 796 814 815
1434 1433 1435 1436 1437 1432 1438 1439 1440 1441 1442 1443 1444 1445 1431 1430 1446 1429 1447 1428
4032 4033 4031 4034 4035 4036 4037 4030 4038 4039 4029 4040 4028 4027 4041 4026 4025 4024 4042 4043
4069 4070 4068 4071 4067 4066 4072 4065 4064 4073 4074 4075 4076 4063 4077 4062 4078 4079 4061 4060
3161 3160 3159 3158 3162 3157 3163 3164 3156 3165 3166 3155 3167 3154 3153 3168 3169 3170 3171 3152
933 934 935 932 931 936 937 938 930 929 928 927 939 926 940 941 942 925 943 924
2224 2223 2225 2222 2226 2221 2227 2228 2220 2219 2218 2229 2217 2216 2215 2230 2214 2213 2231 2232
1240 1241 1239 1242 1243 1238 1237 1236 1244 1235 1234 1245 1246 1247 1233 1248 1232 1249 1250 1251
4221 4220 4222 4219 4223 4224 4225 4226 4227 4218 4217 4228 4216 4229 4215 4230 4231 4232 4214 4233
4413 4414 4412 4415 4411 4416 4417 4410 4418 4409 4408 4407 4406 4419 4405 4420 4421 4422 4404 4423
2649 2648 2650 2647 2646 2645 2651 2644 2643 2642 2641 2640 2639 2638 2652 2637 2636 2635 2653 2654
1380 1379 1378 1377 1376 1375 1381 1382 1383 1374 1384 1385 1386 1387 1388 1389 1373 1390 1391 1372
4071 4070 4069 4072 4073 4074 4068 4067 4075 4076 4066 4077 4078 4065 4064 4079 4080 4063 4081 4062
1558 1557 1559 1560 1561 1562 1556 1555 1563 1554 1564 1565 1566 1567 1553 1568 1569 1552 1551 1550
3429 3430 3428 3427 3426 3431 3425 3424 3432 3423 3433 3434 3422 3435 3436 3437 3438 3439 3440 3421
902 901 900 899 898 897 896 903 895 904 905 906 894 907 893 908 892 909 910 911
2654 2653 2655 2656 2657 2652 2651 2658 2659 2660 2650 2661 2662 2649 2648 2663 2647 2664 2646 2645
1441 1442 1440 1443 1444 1439 1445 1446 1438 1447 1448 1449 1437 1436 1450 1451 1435 1452 1453 1454
3838 3837 3836 3839 3835 3834 3833 3832 3840 3831 3830 3841 3829 3842 3843 3828 3844 3827 3826 3845
4893 4892 4894 4895 4891 4890 4896 4897 4889 4888 4898 4899 4887 4886 4885 4900 4884 4901 4883 4902
50 12
3380 3379 3381 3382 3378 3383 3384 3385 3386 3387 3377 3376
2278 2277 2276 2279 2275 2274 2280 2281 2282 2273 2272 2271
3566 3567 3568 3569 3570 3571 3572 3573 3565 3574 3564 3575
4854 4853 4855 4852 4851 4850 4856 4857 4849 4858 4848 4859
3854 3853 3855 3852 3856 3857 3858 3851 3850 3859 3860 3861
4200 4201 4199 4202 4203 4204 4198 4205 4206 4197 4196 4207
337 336 338 335 339 340 341 342 334 343 333 344
3559 3558 3557 3560 3556 3555 3561 3562 3563 3554 3564 3553
2176 2177 2178 2175 2174 2173 2172 2179 2180 2181 2182 2183
3705 3706 3704 3703 3707 3708 3702 3709 3710 3711 3701 3712
1943 1942 1941 1944 1945 1946 1947 1948 1940 1949 1939 1950
1663 1662 1664 1661 1665 1666 1660 1659 1658 1667 1668 1669
3233 3234 3232 3235 3236 3237 3231 3230 3238 3239 3229 3240
779 778 780 777 776 781 782 775 774 783 773 772
2050 2049 2051 2052 2053 2054 2048 2047 2046 2055 2056 2045
3951 3950 3949 3952 3953 3954 3948 3947 3955 3946 3956 3957
1252 1251 1253 1250 1249 1254 1255 1248 1256 1247 1257 1258
1335 1334 1336 1337 1333 1338 1339 1332 1340 1331 1341 1342
4992 4993 4994 4991 4995 4996 4990 4997 4998 4989 4988 4987
4963 4964 4965 4962 4966 4961 4960 4967 4968 4969 4959 4970
1437 1438 1439 1440 1441 1436 1435 1434 1433 1442 1432 1443
3086 3085 3084 3087 3083 3082 3081 3088 3080 3079 3078 3089
4553 4554 4555 4552 4551 4556 4557 4550 4549 4558 4559 4560
1673 1674 1672 1671 1675 1676 1670 1669 1668 1677 1678 1679
3643 3644 3642 3645 3646 3647 3641 3640 3648 3639 3638 3649
4163 4162 4164 4161 4165 4166 4160 4167 4168 4169 4159 4158
240 241 239 242 243 244 245 238 246 237 247 248
4711 4712 4710 4709 4713 4708 4714 4707 4715 4716 4717 4718
4581 4582 4583 4580 4584 4585 4579 4578 4577 4586 4576 4587
2250 2249 2248 2251 2252 2247 2246 2245 2244 2243 2242 2253
1349 1348 1347 1350 1346 1345 1344 1343 1342 1341 1340 1339
3403 3402 3404 3405 3401 3406 3400 3399 3407 3398 3408 3409
3357 3356 3355 3358 3354 3359 3353 3360 3361 3352 3351 3362
1989 1988 1990 1991 1987 1992 1986 1985 1993 1994 1995 1984
3384 3383 3385 3382 3381 3380 3386 3379 3387 3378 3377 3376
4247 4246 4245 4244 4243 4248 4242 4241 4249 4240 4250 4251
1043 1044 1042 1045 1046 1047 1041 1048 1049 1050 1051 1052
112 113 111 110 114 109 108 115 116 107 117 118
3503 3502 3501 3504 3500 3505 3499 3506 3498 3497 3507 3496
1435 1436 1437 1438 1434 1439 1440 1441 1442 1433 1443 1432
4925 4924 4923 4926 4927 4928 4929 4930 4922 4921 4920 4919
711 710 709 708 712 713 707 706 714 705 715 704
766 767 768 765 764 769 770 771 772 773 774 775
183 184 182 185 181 180 179 178 177 176 175 174
2420 2419 2418 2417 2421 2416 2415 2422 2414 2423 2413 2424
4692 4693 4691 4690 4694 4689 4695 4688 4696 4697 4698 4699
2267 2268 2269 2270 2266 2271 2265 2272 2264 2263 2273 2274
267 268 266 269 265 264 270 263 271 272 262 273
314 313 312 311 315 310 316 317 318 309 319 320
2103 2104 2102 2101 2105 2100 2106 2099 2098 2107 2097 2096
50 12
4009 4010 4008 4006 4004 4003 4002 4005 4007 4001 4011 4000
1143 1141 1142 1144 1140 1145 1139 1137 1135 1133 1131 1129
5009 5011 5008 5006 5005 5004 5007 5010 5003 5012 5002 5013
2270 2268 2267 2269 2266 2265 2263 2271 2264 2272 2273 2262
4568 4567 4569 4566 4570 4572 4573 4571 4574 4576 4575 4565
320 319 321 318 317 315 316 314 322 313 311 312
4662 4660 4661 4659 4658 4663 4664 4657 4655 4665 4656 4666
1271 1269 1268 1266 1270 1272 1273 1275 1277 1279 1278 1280
4337 4339 4336 4334 4333 4331 4329 4332 4335 4330 4328 4326
1485 1483 1486 1488 1487 1484 1482 1489 1491 1492 1490 1493
1097 1096 1098 1095 1099 1094 1093 1092 1091 1089 1087 1085
2167 2166 2168 2165 2169 2164 2170 2163 2162 2171 2161 2172
3844 3846 3847 3845 3848 3849 3843 3850 3852 3851 3853 3854
2149 2148 2150 2147 2146 2151 2153 2152 2145 2143 2141 2139
3489 3491 3488 3486 3487 3490 3485 3483 3484 3482 3481 3492
645 643 641 639 640 642 638 644 637 636 635 646
2741 2742 2743 2740 2744 2739 2738 2745 2737 2746 2736 2735
1313 1312 1314 1315 1316 1311 1310 1309 1317 1308 1306 1318
3702 3701 3700 3703 3705 3706 3704 3699 3707 3698 3708 3709
4724 4726 4727 4725 4723 4728 4729 4731 4722 4720 4718 4719
1295 1296 1297 1294 1293 1298 1299 1300 1302 1301 1303 1292
2588 2586 2587 2589 2590 2592 2591 2593 2585 2584 2594 2583
4508 4509 4511 4507 4505 4510 4512 4506 4513 4504 4503 4514
2433 2435 2432 2430 2431 2434 2436 2437 2439 2441 2443 2445
1092 1091 1093 1095 1097 1099 1096 1094 1090 1089 1088 1087
2651 2649 2648 2650 2652 2647 2653 2654 2656 2646 2655 2645
3798 3797 3799 3796 3795 3800 3794 3801 3803 3802 3793 3791
210 212 211 213 214 209 215 217 219 218 220 216
4282 4283 4285 4281 4280 4279 4277 4284 4278 4276 4286 4275
4924 4925 4926 4928 4929 4927 4930 4932 4933 4931 4923 4934
1010 1008 1011 1012 1009 1007 1013 1014 1006 1015 1017 1018
3752 3750 3748 3751 3749 3747 3745 3744 3743 3746 3753 3742
2998 3000 2997 2995 2993 2994 2996 2992 2991 2989 2987 2990
3237 3236 3238 3235 3234 3233 3232 3239 3231 3240 3242 3243
4422 4421 4423 4424 4425 4420 4418 4416 4419 4426 4428 4427
3822 3824 3821 3819 3820 3818 3816 3823 3817 3815 3814 3825
2643 2645 2647 2649 2646 2644 2648 2650 2642 2640 2651 2641
3149 3147 3145 3148 3146 3150 3152 3154 3156 3155 3153 3157
321 323 325 324 326 322 327 329 320 318 316 314
2305 2306 2304 2302 2307 2309 2311 2308 2310 2312 2303 2313
870 871 873 875 874 872 876 869 877 878 879 880
5045 5043 5042 5044 5046 5048 5041 5040 5039 5047 5038 5049
2129 2131 2132 2130 2128 2133 2134 2135 2136 2137 2138 2127
3922 3920 3921 3919 3923 3924 3918 3917 3915 3913 3912 3911
2515 2514 2516 2513 2517 2512 2518 2520 2519 2511 2521 2523
301 300 302 303 305 299 298 304 306 297 307 309
2165 2167 2164 2166 2163 2168 2169 2170 2162 2160 2161 2171
2161 2163 2162 2164 2160 2165 2167 2168 2170 2169 2171 2173
4890 4888 4891 4889 4892 4894 4896 4897 4895 4898 4893 4887
246 247 245 243 244 242 241 248 240 238 236 239
50 12
9790 9773 9776 9752 9793 9852 9884 9953 9866 9949 9976 9956
8582 8518 8592 8646 8621 8627 8724 8743 8751 8758 8800 8783
5753 5775 5752 5768 5691 5666 5603 5695 5622 5684 5648 5668
5472 5572 5602 5596 5681 5754 5818 5776 5785 5798 5774 5807
7703 7732 7826 7857 7805 7730 7829 7844 7889 7957 7976 8064
8901 8950 9029 9084 9174 9118 9042 9016 9007 8913 8825 8742
6104 6181 6177 6132 6046 6015 6017 6053 6061 6100 6200 6131
6899 6897 6798 6717 6810 6895 6921 6909 6963 7060 7094 7180
7100 7145 7151 7156 7212 7155 7158 7213 7231 7217 7192 7107
8686 8649 8748 8659 8757 8777 8839 8908 9008 8999 9098 9116
6775 6684 6661 6758 6674 6660 6643 6601 6609 6525 6573 6639
9102 9049 9072 9094 9119 9218 9166 9146 9093 9182 9217 9120
5425 5326 5315 5361 5314 5329 5296 5362 5347 5325 5351 5363
8964 9063 9116 9095 9066 9054 9119 9096 9183 9209 9186 9142
5383 5473 5553 5513 5577 5504 5579 5615 5609 5688 5745 5759
7466 7523 7570 7587 7510 7520 7506 7456 7495 7426 7359 7391
6890 6836 6853 6852 6764 6774 6847 6916 7006 7050 6974 6997
7587 7669 7715 7686 7761 7812 7901 7952 8013 8110 8015 7959
7015 6982 6905 6994 7019 7079 7132 7036 7010 7066 6967 6943
5244 5337 5259 5238 5227 5269 5234 5261 5252 5289 5203 5125
6000 5945 6022 6092 6144 6109 6034 6118 6031 6086 6165 6242
7567 7579 7641 7739 7794 7804 7708 7725 7810 7770 7733 7793
5135 5158 5096 5153 5069 5128 5203 5114 5063 4990 5008 4910
8237 8181 8198 8161 8091 8147 8061 8011 8074 8069 8077 8073
5569 5624 5659 5720 5713 5787 5802 5837 5847 5753 5669 5656
8350 8285 8302 8380 8298 8382 8327 8278 8363 8315 8294 8237
6276 6281 6321 6354 6299 6219 6126 6071 6053 6134 6185 6123
9638 9660 9637 9722 9793 9842 9901 9846 9887 9818 9799 9750
7984 8031 7958 7888 7823 7908 7916 7863 7883 7874 7923 7985
8779 8759 8803 8880 8912 8893 8855 8950 9022 8977 8968 9047
7415 7336 7408 7414 7398 7459 7418 7428 7385 7416 7437 7341
7264 7303 7301 7352 7362 7344 7321 7225 7258 7263 7267 7195
9374 9275 9198 9278 9273 9214 9151 9174 9140 9179 9156 9229
9891 9799 9728 9687 9780 9857 9824 9846 9922 9988 9898 9831
8521 8550 8508 8527 8461 8421 8341 8392 8384 8294 8336 8279
6780 6791 6788 6742 6836 6848 6783 6738 6677 6694 6789 6757
5628 5632 5636 5716 5697 5695 5644 5617 5649 5698 5789 5855
6061 6092 6097 6068 6096 6077 6003 5928 5863 5947 6013 5921
6301 6219 6144 6124 6164 6184 6228 6153 6080 6073 6133 6120
8304 8370 8402 8382 8405 8445 8379 8328 8307 8321 8343 8435
6540 6533 6449 6440 6360 6433 6517 6519 6458 6520 6593 6518
8085 8028 8084 8140 8062 8159 8256 8235 8305 8387 8437 8508
5821 5898 5888 5912 5855 5931 5833 5754 5796 5792 5744 5757
8273 8295 8204 8120 8090 8093 8015 8021 8104 8193 8246 8312
9418 9375 9351 9275 9189 9106 9047 9069 9152 9096 9098 9110
9999 9914 9869 9957 9865 9772 9802 9875 9836 9919 9845 9916
7140 7148 7239 7269 7271 7193 7192 7124 7197 7142 7126 7044
7682 7720 7780 7852 7934 7965 7929 7862 7863 7767 7738 7725
5004 4998 4993 4947 5001 5020 4980 5027 4974 5074 4977 4911
5299 5262 5204 5127 5152 5221 5121 5194 5104 5063 5006 5022
9 15
644 643 642 640 645 641 639 646 638 647 637 636 648 635 649
577 579 576 578 575 573 572 574 571 580 581 570 582 584 585
837 835 838 839 840 836 834 841 833 831 832 830 842 843 829
225 224 222 220 218 219 217 221 216 223 215 226 228 227 229
194 192 190 189 188 191 193 187 195 196 186 197 199 185 198
787 789 786 784 783 785 782 781 788 790 792 780 791 793 795
634 632 635 633 631 629 628 626 625 627 624 630 636 623 621
644 642 640 641 643 639 637 638 645 636 635 633 634 632 631
864 863 862 865 861 860 866 867 859 868 858 857 869 856 855
32 6
3087 3084 3088 3089 3092 3093
191 190 189 192 188 193
1800 1798 1801 1802 1804 1803
790 788 786 789 791 792
3092 3093 3094 3095 3091 3088
1711 1710 1707 1706 1708 1709
325 324 327 330 332 329
1535 1536 1534 1533 1537 1532
1714 1716 1719 1718 1720 1721
3104 3102 3105 3103 3100 3098
1956 1958 1955 1952 1949 1948
520 522 525 523 521 524
2944 2947 2949 2946 2948 2945
2151 2149 2152 2150 2148 2146
780 778 781 784 785 786
3173 3170 3172 3169 3167 3168
2302 2303 2304 2301 2305 2300
508 506 507 509 505 510
3149 3148 3146 3150 3151 3152
1488 1491 1492 1493 1490 1494
383 384 386 389 387 390
1884 1885 1887 1890 1889 1886
2032 2030 2029 2028 2026 2031
1316 1317 1315 1314 1318 1313
3119 3117 3115 3116 3113 3110
1715 1716 1714 1712 1710 1711
2277 2279 2282 2281 2283 2280
1354 1355 1352 1356 1353 1357
1954 1956 1955 1957 1953 1958
1697 1694 1698 1695 1696 1693
2009 2010 2007 2008 2011 2006
437 438 441 444 446 443
44 6
676 677 675 678 674 671
3557 3555 3554 3553 3552 3556
2064 2061 2058 2057 2054 2059
2117 2114 2116 2119 2122 2125
4273 4272 4270 4274 4276 4278
3190 3192 3189 3187 3184 3185
1940 1941 1939 1937 1934 1938
278 281 280 279 276 282
3493 3490 3488 3485 3484 3486
3936 3933 3931 3934 3935 3932
327 329 326 330 325 323
3903 3901 3898 3895 3893 3896
1647 1646 1648 1651 1652 1650
2058 2059 2060 2061 2057 2062
4479 4477 4474 4471 4473 4475
814 812 813 815 811 810
3982 3983 3981 3984 3980 3985
1610 1613 1614 1611 1609 1608
3562 3560 3561 3559 3563 3558
3564 3565 3566 3563 3567 3568
4150 4149 4151 4148 4152 4153
2233 2236 2232 2229 2231 2234
3675 3674 3676 3678 3679 3677
1429 1427 1425 1426 1428 1424
1760 1757 1755 1753 1756 1758
621 620 622 624 626 623
1553 1556 1552 1551 1554 1555
516 519 515 518 520 517
1903 1901 1904 1905 1902 1906
696 695 697 698 694 699
443 446 448 449 447 450
1560 1562 1565 1563 1566 1561
2434 2431 2429 2427 2425 2428
441 443 442 445 440 437
1548 1550 1552 1549 1546 1547
1727 1725 1726 1729 1724 1728
4062 4061 4063 4065 4066 4064
3911 3913 3915 3918 3914 3912
2795 2794 2792 2793 2796 2791
1181 1183 1185 1186 1184 1182
1012 1010 1013 1014 1016 1019
2732 2730 2731 2729 2733 2735
1110 1108 1105 1103 1100 1102
3440 3442 3443 3441 3438 3437
8 6
189 187 184 182 185 181
444 445 446 443 447 450
162 161 158 155 152 149
781 783 782 780 778 776
48 51 50 47 52 49
628 626 623 621 624 620
75 76 77 79 80 82
715 713 716 714 712 711
9 14
321 325 324 326 323 327 322 320 316 328 332 329 319 330
146 145 147 148 144 149 143 142 150 154 141 151 155 152
397 400 404 402 401 398 395 393 389 390 388 391 387 392
66 64 63 65 62 58 67 68 61 59 69 60 57 70
57 56 60 55 58 61 59 63 54 62 53 64 68 72
308 309 312 314 313 310 311 307 315 316 306 302 299 296
460 462 466 469 467 468 465 470 473 476 472 464 463 461
347 349 348 350 346 351 355 354 345 352 344 353 356 357
701 702 700 703 706 710 709 711 707 699 704 705 698 708
29 6
1553 1549 1547 1550 1546 1548
486 484 482 485 488 489
1662 1661 1663 1660 1664 1659
2250 2254 2251 2248 2244 2245
2750 2746 2748 2744 2743 2740
935 932 929 928 930 927
574 576 572 575 578 581
1770 1766 1763 1759 1761 1762
1264 1260 1256 1257 1258 1255
656 655 659 657 658 662
1638 1635 1637 1633 1632 1630
782 780 784 779 781 778
936 939 938 934 937 935
914 913 909 912 908 910
1697 1694 1690 1693 1692 1696
2270 2273 2269 2271 2272 2274
285 286 284 280 282 283
2336 2332 2335 2337 2334 2331
1049 1051 1050 1054 1053 1048
236 233 235 239 243 238
510 507 503 501 500 502
723 725 728 730 729 724
1973 1972 1974 1970 1975 1977
382 384 385 383 379 378
130 131 129 126 125 124
219 217 218 215 220 216
717 720 718 721 722 723
587 583 582 580 576 575
802 801 798 800 797 794
20 10
778 779 777 780 776 775 781 774 782 773
1343 1342 1344 1341 1345 1340 1337 1338 1335 1336
1411 1409 1408 1410 1407 1406 1404 1403 1401 1405
1018 1016 1019 1020 1017 1015 1014 1013 1021 1022
108 106 105 103 104 102 107 109 101 110
1897 1900 1902 1905 1901 1903 1899 1904 1898 1906
1157 1155 1152 1150 1147 1149 1151 1148 1146 1153
1044 1045 1042 1043 1040 1039 1041 1038 1037 1034
660 658 655 656 654 657 659 653 651 649
61 64 62 59 58 55 56 54 52 57
1213 1214 1212 1215 1211 1209 1216 1217 1210 1218
468 470 473 475 474 476 472 471 477 469
1671 1674 1677 1680 1682 1679 1681 1678 1675 1676
1041 1039 1038 1040 1037 1034 1036 1035 1042 1045
1164 1165 1162 1160 1157 1161 1159 1156 1158 1155
93 95 94 96 98 101 102 103 105 106
822 823 826 827 824 828 825 829 821 830
979 977 978 976 974 980 975 981 982 973
1536 1537 1535 1534 1538 1533 1539 1542 1545 1544
511 510 512 515 513 509 514 517 520 518
39 13
2727 2728 2729 2726 2724 2730 2725 2723 2731 2732 2734 2722 2733
3745 3744 3743 3746 3742 3741 3747 3749 3740 3748 3739 3750 3752
868 870 867 866 869 871 873 875 874 876 872 877 879
1740 1739 1738 1741 1737 1735 1734 1736 1742 1743 1733 1744 1745
1179 1178 1180 1177 1181 1183 1185 1186 1184 1187 1182 1176 1188
455 453 452 451 454 450 456 449 457 458 448 446 444
1607 1609 1611 1612 1610 1613 1614 1608 1615 1606 1616 1617 1605
2020 2018 2019 2021 2017 2022 2016 2014 2015 2013 2011 2012 2010
2577 2575 2576 2574 2573 2572 2570 2568 2566 2569 2571 2578 2567
3064 3063 3065 3062 3060 3058 3059 3057 3056 3054 3053 3055 3061
3712 3713 3711 3709 3707 3710 3714 3708 3715 3706 3705 3704 3716
3934 3933 3935 3932 3930 3929 3927 3931 3928 3926 3936 3938 3940
1815 1814 1813 1811 1810 1809 1812 1808 1807 1816 1806 1804 1805
2600 2598 2599 2601 2603 2604 2602 2597 2605 2596 2595 2594 2593
2578 2579 2581 2582 2583 2580 2577 2575 2574 2576 2584 2573 2572
2287 2289 2290 2292 2293 2291 2288 2286 2285 2294 2295 2284 2283
2881 2879 2877 2876 2874 2873 2875 2878 2880 2872 2870 2882 2883
233 232 230 228 227 229 231 226 234 225 235 237 224
2404 2403 2402 2400 2399 2401 2405 2406 2407 2409 2398 2408 2410
961 959 962 964 960 963 958 965 957 966 956 967 969
2920 2922 2919 2921 2923 2924 2926 2927 2925 2918 2916 2914 2915
1506 1507 1505 1503 1502 1500 1504 1508 1509 1501 1499 1510 1511
1276 1274 1273 1272 1270 1268 1267 1269 1271 1275 1266 1265 1277
1529 1530 1532 1533 1531 1528 1534 1536 1527 1525 1535 1537 1539
2719 2720 2718 2717 2721 2716 2722 2723 2724 2715 2713 2725 2726
2640 2639 2638 2637 2635 2636 2641 2634 2632 2633 2642 2631 2643
1050 1049 1051 1048 1047 1046 1045 1052 1054 1055 1057 1053 1044
1790 1788 1787 1789 1786 1785 1784 1782 1791 1783 1792 1781 1779
2773 2775 2776 2774 2772 2771 2769 2770 2777 2768 2767 2778 2779
1510 1508 1507 1509 1506 1511 1505 1512 1513 1515 1517 1514 1516
3435 3437 3436 3434 3438 3433 3431 3439 3432 3430 3428 3426 3425
1875 1874 1873 1872 1876 1871 1870 1868 1877 1878 1869 1879 1881
1034 1033 1032 1035 1031 1036 1038 1037 1039 1041 1043 1044 1045
3762 3760 3758 3757 3759 3756 3754 3755 3761 3753 3763 3764 3765
1619 1620 1621 1618 1617 1615 1622 1616 1623 1614 1613 1624 1626
632 633 634 635 637 631 629 636 630 638 628 626 639
404 403 405 406 408 407 409 402 410 412 414 415 416
3735 3734 3732 3731 3733 3736 3737 3738 3730 3729 3728 3727 3725
402 403 404 405 401 406 407 408 410 411 409 400 398
3 11
39 42 38 41 37 40 36 43 44 35 34
32 33 31 34 30 29 26 27 35 38 36
249 250 247 251 252 248 246 243 245 253 244
28 8
273 269 272 268 274 271 275 270
1668 1667 1670 1671 1674 1677 1676 1678
1570 1573 1575 1572 1569 1571 1574 1568
939 936 933 932 931 928 929 934
2410 2407 2404 2405 2406 2409 2408 2403
1057 1058 1059 1056 1052 1048 1051 1050
2634 2632 2635 2631 2630 2629 2633 2628
154 153 155 156 152 157 159 151
2222 2220 2219 2217 2215 2218 2216 2221
2626 2624 2623 2620 2616 2612 2613 2609
2379 2375 2372 2376 2380 2378 2381 2384
207 210 208 206 204 209 205 211
380 384 383 379 378 375 374 376
2577 2578 2576 2579 2575 2573 2580 2574
893 890 891 894 889 892 888 886
944 943 939 935 938 934 932 936
464 461 465 463 466 468 469 470
723 722 719 715 716 720 724 721
2226 2224 2220 2225 2227 2223 2221 2219
2631 2628 2626 2627 2632 2635 2639 2641
2537 2538 2539 2541 2543 2547 2550 2552
113 115 112 116 111 114 117 118
1529 1528 1530 1531 1534 1538 1542 1544
963 960 956 954 955 957 959 958
1005 1002 1006 1008 1012 1009 1004 1003
2042 2041 2044 2040 2036 2035 2033 2037
1202 1204 1201 1198 1195 1197 1196 1192
1450 1453 1449 1451 1447 1448 1452 1446
36 11
247742 130829 275113 242948 114559 286597 884749 58988 251098 70739 171032
718254 199842 831195 818792 102602 967907 705231 967306 495651 561043 635137
854140 814362 533159 766152 343565 887880 422275 649358 12577 179287 464073
704693 491665 416766 970131 653860 511919 714071 318331 886770 810854 677214
936087 245549 606592 452936 101954 188742 357058 596349 881173 680797 277298
669108 484789 348965 80761 284138 931910 35828 968867 623871 700030 482922
189762 267245 72148 593787 199218 725605 996886 291226 836344 256136 621914
708547 443588 50559 257356 725285 386582 214071 114663 115563 510461 519676
245631 474598 169977 172465 397690 609689 355778 193258 49055 287392 912738
584614 669702 495229 446269 387116 83247 787968 265585 454144 523887 928147
792536 929730 603717 4639 206698 139620 942859 43999 732864 745670 83272
101119 711539 426352 698530 558128 877795 185195 889393 610379 450196 275580
385582 717407 349170 49214 337354 906457 483829 217435 361755 171663 768671
189607 545969 501417 358370 451161 992327 767468 519648 484070 963925 512164
262218 975420 858435 636590 995689 578968 232439 134687 653627 322628 250895
882452 636213 539824 414443 962584 253288 401004 45537 989419 247614 271680
799508 440885 636323 313577 223199 841223 808960 177392 592298 131913 532450
277607 256927 101894 56185 202371 221751 518673 430653 182481 235438 194450
132651 919447 448405 327088 533229 863176 925574 567325 583064 135074 232177
580473 100303 153320 200533 708772 881605 196983 490251 973283 84895 278728
452284 112493 222455 576257 40883 638931 561597 816504 342669 278987 592568
731525 995789 525144 525162 983810 9932 737623 701906 104225 371533 352551
845003 754347 768495 596854 702610 414097 692539 435365 325221 601200 65054
304983 365510 557094 37296 941275 923615 676619 684082 180019 600063 620559
467799 745409 462914 184494 531257 912909 612879 777938 450028 692085 401275
344005 574832 536754 177228 395152 964992 897602 10584 154741 627207 386808
691019 42630 124274 536796 504454 904929 954656 164672 484709 216393 570103
180256 758617 937825 997328 482100 168756 480007 729938 421782 928708 534602
965468 482699 383318 512074 286940 336176 886812 656107 138749 388867 777961
90037 980669 275402 692952 390731 567580 816163 437133 98822 714288 840874
246419 295022 721878 195072 398693 836628 366211 158590 457736 254927 213048
752822 169109 611409 143508 547810 72213 923621 106307 548780 65284 933639
45012 440537 6328 73952 190057 451027 377243 126492 273607 621777 429268
386282 642893 74661 806661 509839 98114 810402 602989 53799 246407 920039
661933 278394 729323 814029 988327 146167 92957 206889 972418 160400 176636
643390 479754 105969 742155 308098 218805 486366 490240 323851 692608 857704
5 13
691000 312459 864340 724916 580885 844519 99533 541842 240449 979929 511143 492963 971894
894262 429904 365612 631300 72419 856441 821931 107186 773204 509318 930981 337596 369119
677791 123019 586555 379068 621988 354568 750179 158940 730557 683434 378342 635810 796047
470826 450549 351554 923914 829594 982822 589237 472095 326954 317681 207190 276687 119318
330004 245404 168863 551216 952279 430517 9896 735813 624042 637243 917194 741231 585770
13 16
259383 193026 605549 214799 324260 221230 10505 301849 13668 993371 845320 754062 411606 199594 306491 650306
219954 642324 635742 282969 952342 61672 133426 734878 161389 532975 236920 826483 333630 648240 201484 256355
472719 992015 128283 547603 181555 605904 218434 197656 5111 571449 557252 533090 337957 210262 83304 376533
597619 793174 303853 901880 981836 556371 6635 845702 218552 540719 668744 315554 745514 178073 960339 437096
743654 374703 792704 516063 342669 987198 299136 420426 90758 367140 991613 3677 617291 362071 633583 393357
835725 458174 52446 600896 511237 206909 849716 725028 397593 276110 282878 640924 481126 236874 595135 606164
691312 906952 758449 49717 314403 512860 905945 174260 659525 120385 689093 382981 641595 348497 744165 386286
663413 606192 50500 980406 429686 760841 272929 761916 219715 991216 166446 409571 507880 988519 520868 789803
748065 570172 102849 239643 504812 158672 429664 653914 454185 408370 206963 412830 238506 685225 583902 183932
161885 400912 584627 730525 281875 178012 634118 910929 878572 498746 59117 409725 618017 233811 340950 679280
553390 936369 23365 269716 916570 87867 805224 453760 198180 299612 254232 954730 533324 361218 970798 624378
784699 117507 184192 642425 259536 229466 408759 321000 873031 461902 303374 503662 739336 744243 348137 163817
712458 425418 95376 623333 195618 441347 942534 819306 346220 42084 699722 583215 147348 774273 538729 863085
14 3
378366 667919 451808
816294 440648 710469
340297 301777 702118
357048 910991 103978
534321 947032 399657
968170 803894 235089
227831 136972 654158
228379 373428 945452
423772 886640 252343
660170 316643 929561
408166 98413 441410
442082 416439 717540
560333 491756 511076
71656 443656 164897
39 12
530882 766722 646975 686391 614284 466972 894734 936122 560021 814873 893936 813721
75555 668210 26729 175488 403568 45698 846811 503661 802591 756022 944459 927225
665945 93153 250637 334389 934024 344876 122959 663215 450352 410730 640832 945812
415013 513162 540763 650159 554349 154854 514260 571984 575922 305400 320733 490376
441636 643819 925909 72464 862569 721615 825550 34889 139074 481191 303673 653854
180347 31005 802033 887365 11470 754390 638368 327909 434006 596639 148626 934290
315051 927942 483412 90739 689374 140422 403144 182149 184914 408026 779208 66360
23477 592050 545269 646199 173978 494595 174107 376901 695989 116473 283522 134659
434738 495944 924884 236430 43378 176160 448230 384837 244514 261183 12389 40808
276154 930976 269854 8027 415311 786321 480361 803210 609110 19618 211891 363431
23606 149881 996135 741968 309576 776707 786937 186507 333934 44357 841679 710067
972365 748816 511691 289324 67304 177107 4857 880401 515354 848395 615762 995056
405232 526037 793579 216683 998817 322147 866045 773311 126250 20173 236433 663713
430410 247231 164936 526980 698263 137809 338692 902583 539452 990004 281911 901996
793872 593479 293702 650772 389907 85129 819417 458213 276359 843562 189186 365437
135145 252090 307399 511072 599947 36611 838542 360670 61135 245298 598308 43600
517634 451055 728361 383552 194578 678287 809244 568360 373869 910879 419583 707795
207992 427873 107366 270304 388841 970195 480354 124390 794242 323306 696580 880945
199275 101342 165712 207977 939754 97247 243456 850835 916801 31589 800753 361265
113252 121189 716079 891525 199125 282783 980760 713076 771870 538132 313007 641797
593898 332309 724735 923784 680961 895223 314409 971091 607199 482851 451341 785960
428911 124106 378001 429042 416297 724661 270737 85998 35333 816826 238691 682151
779866 309962 263301 208154 164888 133032 135270 54328 478 754804 714573 539529
803065 723493 259882 874029 672954 375702 466103 899069 312499 569399 466187 369745
767630 459812 488315 332059 319241 616466 497005 466545 336017 31846 704186 866472
120506 357216 155327 802267 252505 135348 797121 513099 153791 391929 854522 401505
984978 595450 176324 78094 77897 817899 755105 469075 398915 944502 513701 256413
77317 188338 407041 712968 947279 793141 987628 328452 493145 571328 287727 589845
640303 756377 734478 40948 255270 890806 821966 872147 455290 150549 298920 601790
687302 287400 856136 492957 885726 219246 37314 270678 559308 335197 690450 263247
749094 923771 39694 296081 474568 913357 989546 318088 304372 937062 442791 591590
912194 76448 821082 458984 591749 400361 618645 583537 383740 447925 726388 257746
516018 267025 17350 773355 715123 776664 690261 868138 138347 777726 656148 563442
715868 178441 453028 927320 724283 937504 189122 475847 277288 179068 139857 544323
912585 57467 849088 995658 404418 128403 151704 768151 43794 804323 744037 58944
842189 687205 218302 927999 894130 617920 446834 404877 260392 471547 909072 331370
463450 268299 765779 563002 872300 355405 422696 85449 597848 161615 190558 275119
245098 369032 793193 801423 373332 159144 105107 760249 91950 215242 78016 468015
86222 310919 60444 448133 964033 244004 110435 538145 970083 507051 540556 499170
16 8
362259 667550 86919 675944 464418 866883 929928 142871
55451 548831 915786 977828 892420 245562 446507 274251
847888 573473 669717 900372 78662 257982 79289 37514
344016 247458 699435 716483 802 620645 99418 406942
908357 469349 43754 825932 460671 897706 701488 8644
616417 154346 523529 338970 597229 32680 521688 831338
209441 772150 351002 539374 256100 51996 490215 677424
41100 216977 521159 853145 304202 754982 9006 6567
186675 785154 300886 544253 280235 238536 298039 796308
680816 245205 515110 277903 828353 477925 487431 918765
986793 393109 852464 687064 913259 512323 980316 108058
47499 72721 571849 712303 29047 396937 107055 587253
771025 139482 73053 436352 472218 148289 585585 576650
476988 6851 179827 718279 317107 612822 167438 175639
927002 643680 801389 696853 773390 762327 634990 710028
877185 854983 137990 928842 225565 92274 974513 706636
16 11
665939 492184 616830 404345 326192 180010 542712 700697 85509 814214 479737
353888 837889 79852 413992 891771 984867 283370 788865 53692 473137 808651
723937 623254 951378 448941 601328 712772 223049 322480 763627 249866 69006
514891 285069 47124 882891 646200 574553 660858 735088 183184 50247 565733
172723 291953 184904 600971 777959 250203 993208 938518 500728 500826 972832
149411 482241 574110 811492 69925 73866 149478 679439 746922 396257 844699
313209 382454 799187 27321 713363 250059 960967 516776 172623 275274 404344
591145 332846 372851 3277 129067 858983 733641 91671 385598 789873 702609
161190 508703 144750 870776 146760 838833 360820 800916 760160 636237 68536
343299 93150 703536 327897 843568 831712 696659 308742 641140 147237 955928
312078 289240 865706 628832 132291 986297 241571 998713 858633 85956 533463
512501 183296 430689 77336 297302 623819 639469 542558 561893 448125 560223
360704 117153 685536 321356 165710 190293 958497 492421 855245 818627 327707
747230 351248 897852 787582 264714 697839 118161 227740 535970 472807 942307
825808 695556 991630 796311 484107 215192 66032 519526 934268 176750 429963
921553 833691 908419 106212 435505 97491 851555 39877 268332 597002 724968
11 6
295566 302880 479055 839113 756317 455565
713193 447663 866193 798917 194428 351354
878182 225594 113195 217174 350249 987924
21014 64771 623040 686842 401464 537517
590480 183152 89568 140313 158734 376666
898377 820604 560486 150111 688920 3494
88513 624297 472883 153691 451703 117832
715001 276994 770833 882166 944545 409271
189113 709301 342258 869691 974144 906965
968220 52939 838732 470354 849970 21134
874269 607450 616837 564327 752250 60331
12 7
291388 78619 945367 867244 966006 445425 648278
593908 292543 111985 66151 846350 93727 765366
790325 950781 514834 937591 3749 922704 723259
788203 256144 944013 558440 591881 795482 173898
324286 386153 624883 475996 120001 18438 300906
819238 889730 825701 320745 611539 492070 410382
528593 425310 458894 528505 488435 192846 682984
564357 635943 41024 396434 286305 274829 196124
851238 206925 126110 537002 246374 859835 936366
729469 815045 965455 104000 364877 151376 759750
670021 748323 53559 609778 106547 151277 766524
561059 895615 951857 781815 378082 703670 620446
39 17
931325 783422 186569 310474 651619 377800 4967 617414 144864 834067 11324 882394 274157 932644 226770 237753 63615
141992 628841 881345 715297 169213 264860 20504 999661 997674 147763 60339 140646 414960 357124 343472 130101 491064
920070 999715 308735 558379 498355 838638 559455 862433 276889 445898 815429 669553 539582 658722 782314 46503 101550
489310 969519 672531 224163 322429 737553 97086 74639 275355 776971 451768 528264 705682 945545 85005 652112 813181
65668 62678 437696 64664 369022 635883 763025 509251 834524 465974 348743 379813 426395 339170 982779 457965 946288
816051 307523 581108 744897 756976 948480 811967 103929 621115 148931 486624 320908 43777 742556 298171 69511 339340
257345 582502 674962 746421 386776 522538 131462 709431 518689 415015 19173 428896 803971 925907 475898 669472 99889
889635 783758 705924 138681 528130 64004 643964 918697 948990 270098 111320 340830 521858 192348 72338 596458 487230
622254 482436 189729 658979 46102 770810 390977 83530 517020 790946 543227 347572 185952 978976 268578 697772 368718
503230 518063 963721 33087 544897 711407 326608 938607 281878 803977 45878 299671 179691 126384 909058 148711 589211
196641 127633 589794 415745 858841 807539 16725 870126 114263 963763 589621 67445 783881 611124 783892 951779 386390
657783 344256 306636 742599 833721 69176 475136 564627 681081 401164 756317 112837 336408 963408 155134 548428 832536
669372 850321 641247 55879 369315 545095 823370 119477 959886 59172 451034 386144 650997 958454 408353 879345 356569
742370 290983 527583 973761 839641 321517 352946 360271 277674 774815 554786 398013 561650 487829 930782 628985 593838
243526 659112 974875 157297 503498 268957 666175 145073 757001 182930 437444 910971 504069 735643 163552 484295 395650
544165 910237 230118 712654 747139 100595 682135 731120 877894 199875 526202 233905 318788 916974 116700 150209 917691
532880 872113 1864 926160 395100 368607 257547 562928 450069 436854 655926 471895 879399 91838 336268 514223 285536
698602 925480 934928 952846 328616 21614 765606 616245 659866 127444 272241 456109 370782 639046 695973 940822 670025
377403 786097 251834 157875 697362 875229 383357 31660 315112 83084 950403 890573 441849 672609 492446 192169 142511
876862 786034 702113 19852 283240 773096 568918 246961 210438 851467 372346 892617 47688 115650 833536 484437 177125
712874 189106 88724 224252 804240 781920 208142 437404 658568 865398 649789 82527 925676 813543 407641 906289 926389
59909 887743 627566 221167 569203 262909 581610 138140 840946 633020 474442 61608 835159 749834 298575 655683 800093
137667 826035 93280 826519 63196 489708 552330 800766 524300 265613 180638 321000 491416 91148 409577 374746 85113
846942 384158 977140 115307 774526 333876 309130 668629 264717 697370 335636 820048 854740 978072 218683 595989 560357
518660 494547 998088 261343 167581 540584 410651 783439 915143 543985 595232 510195 857123 120546 323183 530075 370378
850013 289328 249193 727783 837192 480262 367799 125806 99578 885273 794327 457981 537422 895358 878773 86669 116186
82756 138905 126740 397050 597853 741193 410171 201541 472743 956556 300599 355106 89302 368777 170182 433715 70912
177485 712328 747758 6853 929963 564920 472269 971609 511677 719365 790684 321712 875785 106769 444655 243268 226815
946373 679158 133510 791839 309903 21993 422879 104760 113657 292509 550177 689355 667815 994361 433039 753806 645741
769218 215813 751116 590603 741201 779526 767914 824006 392423 857312 166852 565859 496471 274942 84213 902723 984609
581706 62454 995414 781791 830908 556061 342781 525336 673540 178119 137152 971827 196368 81105 963368 395206 774778
501824 334907 189579 39378 393985 551186 127347 661187 994954 602648 224789 680612 679198 991329 513279 982109 548336
235748 776429 482996 216415 694935 220248 597491 771744 355622 869989 944440 210554 32015 620222 991705 828074 283549
452798 478641 360806 754238 19078 668172 209406 922051 774573 101674 982111 395508 111380 784820 429298 341838 497943
879737 847073 956635 610527 250978 643642 496363 985236 442170 658476 187828 342256 372692 281837 545284 17839 724440
565886 19422 817122 793646 375110 760633 570851 639686 357915 147025 468003 404673 886432 728615 907999 355903 718920
488156 331185 771014 838841 827878 35203 292555 273163 902700 592478 415457 975855 269572 541984 366843 921645 721798
197324 354975 204997 661261 308924 770730 695735 328330 460593 816698 291999 914564 852171 297275 955768 181872 600084
138322 586625 420840 880502 482207 899068 428556 530061 602291 195027 503410 961623 342990 356438 481546 261000 935123
50 20
286431 576787 71995 535882 304791 303476 103746 221970 448849 445816 520734 516513 112211 463017 757962 544313 130870 47943 408306 295914
972643 210406 813121 79614 830141 261857 224151 710916 404701 566334 165786 691900 967288 70368 572772 455260 383965 621411 777754 303677
686619 741336 214172 824229 793280 369053 105432 107313 434364 607255 763641 505567 399203 6222 54910 537014 441169 488678 908069 64338
258855 628726 473413 429520 183156 812103 718715 169106 454000 464299 896956 37231 491106 346295 991690 726394 574049 606046 615234 738349
237303 320363 873361 509875 845089 259226 237895 223823 437235 714324 498884 239020 90200 905990 341775 599425 862455 884893 235845 286112
814258 637408 537710 541532 23112 655593 173483 316949 993754 520129 6860 807138 957067 290519 899582 748441 408960 78877 827553 746941
337094 54976 389688 536197 86291 689537 721338 776005 141861 223093 485381 475131 896711 234837 858994 549689 621426 561923 758723 329450
333520 340314 114681 121154 654748 482736 724162 1222 544869 56043 164176 6197 48176 72445 282821 394194 339069 354877 493962 283599
35746 827683 600575 280471 677204 814112 515341 920888 227973 992216 664599 769452 886823 689213 102094 541379 646734 998473 624291 544110
913523 137815 652504 845546 291540 360671 119984 60742 580281 210252 99717 10963 490770 761404 71096 115176 565693 664851 25922 222671
829795 884988 364713 385808 595330 783358 67279 460183 732101 870390 913701 124484 165199 918263 262076 358159 529046 993083 478844 589590
55084 160516 622445 795269 123418 371347 811123 592353 222949 717124 808919 838001 725106 637828 446655 75529 661125 581297 462272 948596
130469 406412 127818 243837 389212 374365 694594 972762 487387 729252 530797 896310 406458 934967 396039 477210 408092 193405 125940 936375
888944 929413 466382 306258 936981 414020 921757 676620 589717 908713 321892 765709 453906 799135 821720 489293 625855 599646 960108 612095
380549 984302 916167 367322 632389 581370 422295 41989 770173 665933 96831 215774 735812 898027 636268 960102 836655 435662 552133 727181
45910 276604 855041 488406 422001 284545 977426 877863 77595 466639 169279 148976 467513 270190 664207 77173 988468 425825 956641 431417
907617 8919 446233 786825 150722 913419 996853 861666 947174 201337 929917 63424 754923 996604 943961 52292 127332 820809 795068 445824
800981 705282 152702 483555 922843 719864 612296 330108 159465 364224 905448 507308 919405 977776 272133 428013 494288 721591 518188 230840
22044 43094 508360 933016 765433 989375 842353 896585 527760 577992 740571 818124 130513 622732 198191 401802 624271 115998 837238 104226
180104 619563 293106 555153 146179 200875 328135 266941 886994 248772 284182 943966 206135 255163 483243 332874 110691 53655 912268 487515
456409 849748 42610 924798 66866 977473 360404 506139 606009 35319 3998 41948 173878 379894 89729 520861 268680 842653 623716 300014
471147 998469 979960 8263 20634 12924 528041 25801 962382 115801 461744 994733 440228 226880 798917 795531 11548 142004 724914 443657
559869 948436 340995 22942 422807 254964 657690 336834 183777 981273 504734 319028 570048 26256 498899 335591 979305 347243 895750 716170
84445 70809 137567 313523 454483 741921 48216 501223 753332 452539 211917 788232 354944 17035 434729 701596 640782 777019 460672 817589
236400 311860 217660 397827 2549 972472 862126 812082 381639 909087 472582 839041 394101 636523 65950 272737 2188 341002 582320 206405
448286 749161 497896 605772 801316 297520 814485 725065 192319 622173 940600 324587 516506 400768 823231 687758 164012 639952 577804 150749
900826 305833 100205 541025 692025 152163 803057 672171 711217 679568 142096 139738 884285 619345 797065 189706 203406 609301 127433 301401
384079 908656 755207 935191 126404 847188 77485 936713 295372 276846 312880 138074 315909 711519 300800 856351 114190 4501 713307 989317
641896 859846 771837 936986 608309 381001 891570 610420 386275 391313 718283 899202 316258 248326 503599 766381 29456 159297 825737 735210
583991 789988 619103 630879 842540 565141 983234 492911 138392 31061 157537 915556 144979 459456 171961 418424 403628 736163 439720 271424
831685 125045 930143 75318 290395 776948 328820 64225 901860 825181 684055 387939 838161 179720 389725 496223 934963 91933 806776 297157
410554 354743 396360 78075 495512 469075 726474 477097 695171 196916 565678 861217 868890 294871 31943 74346 711647 486798 753692 121064
402274 65596 299099 675881 575167 454316 435885 589006 490366 749198 140389 943444 158424 940750 114065 623934 495321 102994 914291 48673
690337 181969 276234 279179 7876 463947 579657 850513 96529 152488 132009 736436 91696 559473 895450 760239 650277 216805 695573 966944
459057 142265 744973 622352 745175 454128 494211 408097 400444 969682 428025 322963 997031 721932 544574 473522 680169 854692 855016 214176
26070 846550 333024 407611 254833 106000 499415 231658 332006 764103 660375 496073 536880 897716 436724 600623 973915 872303 333985 109016
300835 17126 807454 873524 493500 645946 835599 318667 351019 946742 672616 851659 786193 244460 237509 933039 306312 259438 254102 13838
401958 276774 853048 79166 648991 359571 440734 263715 950343 332832 873774 948183 792308 518050 649640 996215 675394 115375 167425 273864
810224 193941 878990 149573 469863 355902 852636 490694 229211 580382 509084 961486 635530 651926 588283 52657 548578 824489 921936 964576
827135 252503 51055 788179 166162 248155 301019 63954 738269 187902 294295 113951 997850 275159 121949 728963 119292 659936 205736 933108
885837 696245 99436 600095 954358 394027 816998 461208 206941 632650 42765 904092 877544 910569 567592 351039 374689 671525 191545 155830
71922 408573 811223 88515 426831 882381 311897 849337 846258 182757 373230 688107 524354 527238 719498 207221 796109 534392 24891 631590
802164 666826 714522 785033 646950 910888 831900 364174 448964 868114 265288 506202 137316 169599 314627 440616 656817 75341 451527 38874
770480 783139 837490 229088 674013 837925 649531 551939 254132 674003 574271 42447 48203 452415 424505 530395 400924 337128 616913 277558
790625 403000 307787 809904 206296 711575 164576 968386 364902 657066 543018 78171 609048 674796 946168 281800 138116 986983 897217 812286
950798 669454 354870 75143 24454 887674 691440 775240 971375 917695 756425 941163 334171 584875 17030 543661 353074 991578 623154 527941
500305 181369 961734 661104 149326 443861 699460 633365 891930 904415 888290 379802 582592 311423 812516 511427 443850 189393 727491 357505
742594 40320 7689 788255 99606 953726 585662 300228 406613 578205 757948 317542 970518 399501 325663 474636 536439 335986 156185 448893
627395 299681 473890 645834 297005 97208 97484 363125 905081 599575 565044 229501 224698 488959 887380 528007 713718 804933 667062 818603
285605 897138 41795 881048 960472 855098 831354 472100 280695 587607 167804 935603 719139 195394 872579 322115 192122 159310 296371 128531
50 1
999951
999952
999953
999954
999955
999956
999957
999958
999959
999960
999961
999962
999963
999964
999965
999966
999967
999968
999969
999970
999971
999972
999973
999974
999975
999976
999977
999978
999979
999980
999981
999982
999983
999984
999985
999986
999987
999988
999989
999990
999991
999992
999993
999994
999995
999996
999997
999998
999999
1000000
50 3
1 1000000 500022
999998 500028 6
3 999989 500022
500013 999989 10
500029 999988 10
500024 8 999997
500027 6 999988
500019 10 999996
500015 3 999988
500029 3 999992
4 999990 500020
9 999993 500017
500017 999997 1
4 999998 500025
999989 9 500012
500026 1 999992
2 500017 999992
999989 9 500011
999993 500018 9
2 500023 999998
999990 3 500014
999997 500018 7
7 999995 500026
999991 6 500023
500011 999992 6
999991 500014 2
6 999988 500012
500022 999995 8
2 500023 999998
9 999994 500019
999993 500025 3
500028 999993 11
999992 500029 5
999993 5 500030
500015 11 999991
10 500029 999997
9 999992 500026
500020 1 999998
500016 999995 9
7 500021 999992
4 999997 500013
8 500018 999995
999995 1 500014
500017 4 999993
6 999997 500011
500018 999991 7
4 500030 999989
999994 500026 2
999999 500024 10
3 500020 999996
